<?xml version="1.0" encoding="UTF-8" standalone="no"?>
<!-- Created with Inkscape (http://www.inkscape.org/) -->

<svg
   width="26.04973mm"
   height="124.55505mm"
   viewBox="0 0 26.04973 124.55505"
   version="1.1"
   id="svg5"
   xml:space="preserve"
   inkscape:version="1.2.2 (b0a8486541, 2022-12-01)"
   sodipodi:docname="K3713.svg"
   xmlns:inkscape="http://www.inkscape.org/namespaces/inkscape"
   xmlns:sodipodi="http://sodipodi.sourceforge.net/DTD/sodipodi-0.dtd"
   xmlns="http://www.w3.org/2000/svg"
   xmlns:svg="http://www.w3.org/2000/svg"
   xmlns:rdf="http://www.w3.org/1999/02/22-rdf-syntax-ns#"
   xmlns:cc="http://creativecommons.org/ns#"
   xmlns:dc="http://purl.org/dc/elements/1.1/"><title
     id="title259">Needle vibration</title><sodipodi:namedview
     id="namedview7"
     pagecolor="#ffffff"
     bordercolor="#666666"
     borderopacity="1.0"
     inkscape:showpageshadow="2"
     inkscape:pageopacity="0.0"
     inkscape:pagecheckerboard="0"
     inkscape:deskcolor="#d1d1d1"
     inkscape:document-units="mm"
     showgrid="true"
     inkscape:zoom="1.5251958"
     inkscape:cx="49.501839"
     inkscape:cy="235.37961"
     inkscape:window-width="1276"
     inkscape:window-height="966"
     inkscape:window-x="0"
     inkscape:window-y="0"
     inkscape:window-maximized="1"
     inkscape:current-layer="layer2"
     showguides="true"><inkscape:grid
       type="xygrid"
       id="grid3177"
       dotted="false"
       spacingx="0.13229167"
       spacingy="0.13229167"
       empcolor="#0000e5"
       empopacity="0.30196078"
       originx="-40.200001"
       originy="-40.199999"
       visible="false" /></sodipodi:namedview><defs
     id="defs2" /><g
     inkscape:groupmode="layer"
     id="layer2"
     inkscape:label="Nachzeichnen"
     style="display:inline"
     transform="translate(-40.200001,-40.199999)"><path
       style="display:inline;fill:none;stroke:#3d3d3d;stroke-width:0.35;stroke-linecap:round;stroke-linejoin:miter;stroke-dasharray:0.7, 0.7;stroke-dashoffset:0;stroke-opacity:1"
       d="m 44.200001,44.5 h 21.8 v 115.1 l -21.8,5e-5 z"
       id="path2810"
       sodipodi:nodetypes="ccccc" /><path
       style="display:inline;fill:none;stroke:#3d3d3d;stroke-width:0.35;stroke-linecap:round;stroke-linejoin:miter;stroke-dasharray:0.7, 0.7;stroke-dashoffset:0;stroke-opacity:1"
       d="m 44.200001,102.05 h 21.8"
       id="path4001"
       sodipodi:nodetypes="cc" /><path
       style="display:inline;fill:none;stroke:#3d3d3d;stroke-width:0.35;stroke-linecap:round;stroke-linejoin:miter;stroke-dasharray:0.7, 0.7;stroke-dashoffset:0;stroke-opacity:1"
       d="M 55.100001,44.5 V 159.6"
       id="path4003"
       sodipodi:nodetypes="cc" /><path
       style="display:inline;fill:none;stroke:#1d1d1d;stroke-width:0.5;stroke-linecap:round;stroke-linejoin:round;stroke-dasharray:none;stroke-opacity:1"
       d="m 44.200001,102.05 21.2,-1.75 -20.9,-1.8 21.1,-1.8 -20.8,-1.9 20.5,-1.8 -20.1,-1.6 19.5,-1.9 -19.1,-1.8 18.7,-1.7 -18.2,-1.8 17.7,-1.8 -17.2,-1.7 16.7,-1.9 -15.9,-1.8 15.2,-1.8 -14.5,-1.8 13.6,-1.9 -12.8,-1.7 12,-1.8 -11.2,-1.8 10.3,-1.8 -9.2,-1.8 8.2,-1.8 -7.1,-1.7 5.8,-1.8 -4.5,-1.7 2.9,-1.8 -1,-2"
       id="path5820"
       sodipodi:nodetypes="ccccccccccccccccccccccccccccc" /><path
       style="display:inline;fill:none;stroke:#1d1d1d;stroke-width:0.5;stroke-linecap:round;stroke-linejoin:round;stroke-dasharray:none;stroke-opacity:1"
       d="m 44.200001,159.6 21.8,-1.6 -21.8,-2 21.8,-1.9 -21.8,-1.8 20.8,-1.8 -20.8,-1.8 19.8,-1.7 -19.8,-1.9 18.5,-1.8 -18.5,-1.8 17.1,-1.7 -17.1,-1.9 15.4,-1.8 -15.4,-1.9 13.7,-1.7 -13.7,-1.9 11.9,-1.7 -11.9,-1.8 9.9,-1.8 -9.9,-1.8 8,-1.7 -8,-1.9 5.9,-1.8 -5.9,-2 3.7,-1.5 -3.7,-1.9 1.4,-1.9 -1.4,-1.8"
       id="path577"
       sodipodi:nodetypes="ccccccccccccccccccccccccccccc" /><text
       xml:space="preserve"
       style="font-style:oblique;font-variant:normal;font-weight:normal;font-stretch:normal;font-size:5.64444px;line-height:1.25;font-family:Normung;-inkscape-font-specification:'Normung, Oblique';font-variant-ligatures:normal;font-variant-caps:normal;font-variant-numeric:normal;font-variant-east-asian:normal;fill:#000000;fill-opacity:1;stroke:none;stroke-width:0.264583"
       x="51.944878"
       y="44.1026"
       id="text8054"><tspan
         sodipodi:role="line"
         id="tspan8052"
         style="font-style:oblique;font-variant:normal;font-weight:normal;font-stretch:normal;font-size:5.64444px;font-family:Normung;-inkscape-font-specification:'Normung, Oblique';font-variant-ligatures:normal;font-variant-caps:normal;font-variant-numeric:normal;font-variant-east-asian:normal;stroke-width:0.264583"
         x="51.944878"
         y="44.1026">A</tspan></text><text
       xml:space="preserve"
       style="font-style:oblique;font-variant:normal;font-weight:normal;font-stretch:normal;font-size:5.64444px;line-height:1.25;font-family:Normung;-inkscape-font-specification:'Normung, Oblique';font-variant-ligatures:normal;font-variant-caps:normal;font-variant-numeric:normal;font-variant-east-asian:normal;fill:#000000;fill-opacity:1;stroke:none;stroke-width:0.264583"
       x="55.95903"
       y="52.402599"
       id="text8058"><tspan
         sodipodi:role="line"
         id="tspan8056"
         style="font-style:oblique;font-variant:normal;font-weight:normal;font-stretch:normal;font-size:5.64444px;font-family:Normung;-inkscape-font-specification:'Normung, Oblique';font-variant-ligatures:normal;font-variant-caps:normal;font-variant-numeric:normal;font-variant-east-asian:normal;stroke-width:0.264583"
         x="55.95903"
         y="52.402599">B</tspan></text><text
       xml:space="preserve"
       style="font-style:oblique;font-variant:normal;font-weight:normal;font-stretch:normal;font-size:5.64444px;line-height:1.25;font-family:Normung;-inkscape-font-specification:'Normung, Oblique';font-variant-ligatures:normal;font-variant-caps:normal;font-variant-numeric:normal;font-variant-east-asian:normal;fill:#000000;fill-opacity:1;stroke:none;stroke-width:0.264583"
       x="40.003204"
       y="103.85497"
       id="text8062"><tspan
         sodipodi:role="line"
         id="tspan8060"
         style="font-style:oblique;font-variant:normal;font-weight:normal;font-stretch:normal;font-size:5.64444px;font-family:Normung;-inkscape-font-specification:'Normung, Oblique';font-variant-ligatures:normal;font-variant-caps:normal;font-variant-numeric:normal;font-variant-east-asian:normal;stroke-width:0.264583"
         x="40.003204"
         y="103.85497">C</tspan></text><text
       xml:space="preserve"
       style="font-style:oblique;font-variant:normal;font-weight:normal;font-stretch:normal;font-size:5.64444px;line-height:1.25;font-family:Normung;-inkscape-font-specification:'Normung, Oblique';font-variant-ligatures:normal;font-variant-caps:normal;font-variant-numeric:normal;font-variant-east-asian:normal;fill:#000000;fill-opacity:1;stroke:none;stroke-width:0.264583"
       x="39.861786"
       y="110.1026"
       id="text8116"><tspan
         sodipodi:role="line"
         id="tspan8114"
         style="font-style:oblique;font-variant:normal;font-weight:normal;font-stretch:normal;font-size:5.64444px;font-family:Normung;-inkscape-font-specification:'Normung, Oblique';font-variant-ligatures:normal;font-variant-caps:normal;font-variant-numeric:normal;font-variant-east-asian:normal;stroke-width:0.264583"
         x="39.861786"
         y="110.1026">D</tspan></text><text
       xml:space="preserve"
       style="font-style:oblique;font-variant:normal;font-weight:normal;font-stretch:normal;font-size:5.64444px;line-height:1.25;font-family:Normung;-inkscape-font-specification:'Normung, Oblique';font-variant-ligatures:normal;font-variant-caps:normal;font-variant-numeric:normal;font-variant-east-asian:normal;fill:#000000;fill-opacity:1;stroke:none;stroke-width:0.264583"
       x="39.759029"
       y="160.8026"
       id="text8120"><tspan
         sodipodi:role="line"
         id="tspan8118"
         style="font-style:oblique;font-variant:normal;font-weight:normal;font-stretch:normal;font-size:5.64444px;font-family:Normung;-inkscape-font-specification:'Normung, Oblique';font-variant-ligatures:normal;font-variant-caps:normal;font-variant-numeric:normal;font-variant-east-asian:normal;stroke-width:0.264583"
         x="39.759029"
         y="160.8026">E</tspan></text><text
       xml:space="preserve"
       style="font-style:normal;font-variant:normal;font-weight:normal;font-stretch:normal;font-size:3.88056px;line-height:1.25;font-family:Normung;-inkscape-font-specification:'Normung, Normal';font-variant-ligatures:normal;font-variant-caps:normal;font-variant-numeric:normal;font-variant-east-asian:normal;fill:#000000;fill-opacity:1;stroke:none;stroke-width:0.264583"
       x="53.896832"
       y="164.71904"
       id="text366"><tspan
         sodipodi:role="line"
         id="tspan364"
         style="font-style:normal;font-variant:normal;font-weight:normal;font-stretch:normal;font-size:3.88056px;font-family:Normung;-inkscape-font-specification:'Normung, Normal';font-variant-ligatures:normal;font-variant-caps:normal;font-variant-numeric:normal;font-variant-east-asian:normal;stroke-width:0.264583"
         x="53.896832"
         y="164.71904">K 3713</tspan></text></g><metadata
     id="metadata3175"><rdf:RDF><cc:Work
         rdf:about=""><cc:license
           rdf:resource="http://creativecommons.org/publicdomain/zero/1.0/" /><dc:title>Needle vibration</dc:title><dc:publisher><cc:Agent><dc:title>The Singer Company</dc:title></cc:Agent></dc:publisher><dc:identifier>K3713</dc:identifier><dc:source>Instructions For Using Singer(TM) Sewing Machine Class No. 206</dc:source><dc:subject><rdf:Bag><rdf:li>Singer 206</rdf:li></rdf:Bag></dc:subject></cc:Work><cc:License
         rdf:about="http://creativecommons.org/publicdomain/zero/1.0/"><cc:permits
           rdf:resource="http://creativecommons.org/ns#Reproduction" /><cc:permits
           rdf:resource="http://creativecommons.org/ns#Distribution" /><cc:permits
           rdf:resource="http://creativecommons.org/ns#DerivativeWorks" /></cc:License></rdf:RDF></metadata></svg>
